%YAML 1.1
%TAG !u! tag:unity3d.com,2011:
--- !u!54 &711840751
Rigidbody:
  m_ObjectHideFlags: 0
  m_CorrespondingSourceObject: {fileID: 0}
  m_PrefabInstance: {fileID: 0}
  m_PrefabAsset: {fileID: 0}
  m_GameObject: {fileID: 8057970792192845105}
  serializedVersion: 2
  m_Mass: 1
  m_Drag: 0
  m_AngularDrag: 0.05
  m_UseGravity: 0
  m_IsKinematic: 1
  m_Interpolate: 0
  m_Constraints: 0
  m_CollisionDetection: 0
--- !u!65 &711840752
BoxCollider:
  m_ObjectHideFlags: 0
  m_CorrespondingSourceObject: {fileID: 0}
  m_PrefabInstance: {fileID: 0}
  m_PrefabAsset: {fileID: 0}
  m_GameObject: {fileID: 8057970792192845105}
  m_Material: {fileID: 0}
  m_IsTrigger: 1
  m_Enabled: 1
  serializedVersion: 2
  m_Size: {x: 2, y: 2, z: 1}
  m_Center: {x: 0, y: 0, z: 0}
--- !u!114 &6479764681943326370
MonoBehaviour:
  m_ObjectHideFlags: 0
  m_CorrespondingSourceObject: {fileID: 0}
  m_PrefabInstance: {fileID: 0}
  m_PrefabAsset: {fileID: 0}
  m_GameObject: {fileID: 8057970792192845105}
  m_Enabled: 1
  m_EditorHideFlags: 0
  m_Script: {fileID: 11500000, guid: bc4f78048e07f03479744b364101f63e, type: 3}
  m_Name: 
  m_EditorClassIdentifier: 
  onCompleteSound: {fileID: 8300000, guid: 9f6f1f5ab6348164383ceab1f215c569, type: 3}
--- !u!1001 &2085805067804343352
PrefabInstance:
  m_ObjectHideFlags: 0
  serializedVersion: 2
  m_Modification:
    m_TransformParent: {fileID: 0}
    m_Modifications:
    - target: {fileID: -927199367670048503, guid: 27e7f80d734e57d4abcc9d7b459495ab,
        type: 3}
      propertyPath: m_Name
      value: Goal Variant
      objectReference: {fileID: 0}
    - target: {fileID: -4216859302048453862, guid: 27e7f80d734e57d4abcc9d7b459495ab,
        type: 3}
      propertyPath: m_LocalPosition.x
      value: -30
      objectReference: {fileID: 0}
    - target: {fileID: -4216859302048453862, guid: 27e7f80d734e57d4abcc9d7b459495ab,
        type: 3}
      propertyPath: m_LocalPosition.y
      value: 0
      objectReference: {fileID: 0}
    - target: {fileID: -4216859302048453862, guid: 27e7f80d734e57d4abcc9d7b459495ab,
        type: 3}
      propertyPath: m_LocalPosition.z
      value: -25
      objectReference: {fileID: 0}
    - target: {fileID: -4216859302048453862, guid: 27e7f80d734e57d4abcc9d7b459495ab,
        type: 3}
      propertyPath: m_LocalRotation.x
      value: -0
      objectReference: {fileID: 0}
    - target: {fileID: -4216859302048453862, guid: 27e7f80d734e57d4abcc9d7b459495ab,
        type: 3}
      propertyPath: m_LocalRotation.y
      value: -0
      objectReference: {fileID: 0}
    - target: {fileID: -4216859302048453862, guid: 27e7f80d734e57d4abcc9d7b459495ab,
        type: 3}
      propertyPath: m_LocalRotation.z
      value: -0
      objectReference: {fileID: 0}
    - target: {fileID: -4216859302048453862, guid: 27e7f80d734e57d4abcc9d7b459495ab,
        type: 3}
      propertyPath: m_LocalRotation.w
      value: 1
      objectReference: {fileID: 0}
    - target: {fileID: -4216859302048453862, guid: 27e7f80d734e57d4abcc9d7b459495ab,
        type: 3}
      propertyPath: m_RootOrder
      value: 0
      objectReference: {fileID: 0}
    - target: {fileID: -4216859302048453862, guid: 27e7f80d734e57d4abcc9d7b459495ab,
        type: 3}
      propertyPath: m_LocalEulerAnglesHint.x
      value: 0
      objectReference: {fileID: 0}
    - target: {fileID: -4216859302048453862, guid: 27e7f80d734e57d4abcc9d7b459495ab,
        type: 3}
      propertyPath: m_LocalEulerAnglesHint.y
      value: 0
      objectReference: {fileID: 0}
    - target: {fileID: -4216859302048453862, guid: 27e7f80d734e57d4abcc9d7b459495ab,
        type: 3}
      propertyPath: m_LocalEulerAnglesHint.z
      value: 0
      objectReference: {fileID: 0}
    - target: {fileID: -2416733968201007103, guid: 27e7f80d734e57d4abcc9d7b459495ab,
        type: 3}
      propertyPath: m_Materials.Array.data[0]
      value: 
      objectReference: {fileID: 2100000, guid: 9460c34ed1450c54fbbe74e62521d56d, type: 2}
    m_RemovedComponents: []
  m_SourcePrefab: {fileID: 100100000, guid: 27e7f80d734e57d4abcc9d7b459495ab, type: 3}
--- !u!1 &8057970792192845105 stripped
GameObject:
  m_CorrespondingSourceObject: {fileID: -927199367670048503, guid: 27e7f80d734e57d4abcc9d7b459495ab,
    type: 3}
  m_PrefabInstance: {fileID: 2085805067804343352}
  m_PrefabAsset: {fileID: 0}
