%YAML 1.1
%TAG !u! tag:unity3d.com,2011:
--- !u!54 &1078864994
Rigidbody:
  m_ObjectHideFlags: 0
  m_CorrespondingSourceObject: {fileID: 0}
  m_PrefabInstance: {fileID: 0}
  m_PrefabAsset: {fileID: 0}
  m_GameObject: {fileID: 6105033552960479488}
  serializedVersion: 2
  m_Mass: 1
  m_Drag: 0
  m_AngularDrag: 0.05
  m_UseGravity: 0
  m_IsKinematic: 1
  m_Interpolate: 0
  m_Constraints: 0
  m_CollisionDetection: 0
--- !u!114 &1078864993
MonoBehaviour:
  m_ObjectHideFlags: 0
  m_CorrespondingSourceObject: {fileID: 0}
  m_PrefabInstance: {fileID: 0}
  m_PrefabAsset: {fileID: 0}
  m_GameObject: {fileID: 6105033552960479488}
  m_Enabled: 1
  m_EditorHideFlags: 0
  m_Script: {fileID: 11500000, guid: b12b3dc1b90244044ac36abdb3c553f9, type: 3}
  m_Name: 
  m_EditorClassIdentifier: 
  rotateBy: {x: 0, y: 90, z: 0}
  rotatePerSecond: 180
  rotateSound: {fileID: 8300000, guid: 46f49131f7f7518419a0f37756c589b8, type: 3}
--- !u!65 &1078864995
BoxCollider:
  m_ObjectHideFlags: 0
  m_CorrespondingSourceObject: {fileID: 0}
  m_PrefabInstance: {fileID: 0}
  m_PrefabAsset: {fileID: 0}
  m_GameObject: {fileID: 369611826745666096}
  m_Material: {fileID: 0}
  m_IsTrigger: 0
  m_Enabled: 1
  serializedVersion: 2
  m_Size: {x: 8, y: 5, z: 1}
  m_Center: {x: 0, y: 0, z: 0}
--- !u!1001 &2853174115488217097
PrefabInstance:
  m_ObjectHideFlags: 0
  serializedVersion: 2
  m_Modification:
    m_TransformParent: {fileID: 0}
    m_Modifications:
    - target: {fileID: -927199367670048503, guid: 8f44dcd6f9fcc8441a8e6b125b8a6866,
        type: 3}
      propertyPath: m_Name
      value: 90 Wall
      objectReference: {fileID: 0}
    - target: {fileID: -927199367670048503, guid: 8f44dcd6f9fcc8441a8e6b125b8a6866,
        type: 3}
      propertyPath: m_Layer
      value: 15
      objectReference: {fileID: 0}
    - target: {fileID: -4216859302048453862, guid: 8f44dcd6f9fcc8441a8e6b125b8a6866,
        type: 3}
      propertyPath: m_LocalPosition.x
      value: 0
      objectReference: {fileID: 0}
    - target: {fileID: -4216859302048453862, guid: 8f44dcd6f9fcc8441a8e6b125b8a6866,
        type: 3}
      propertyPath: m_LocalPosition.y
      value: 1
      objectReference: {fileID: 0}
    - target: {fileID: -4216859302048453862, guid: 8f44dcd6f9fcc8441a8e6b125b8a6866,
        type: 3}
      propertyPath: m_LocalPosition.z
      value: 8
      objectReference: {fileID: 0}
    - target: {fileID: -4216859302048453862, guid: 8f44dcd6f9fcc8441a8e6b125b8a6866,
        type: 3}
      propertyPath: m_LocalRotation.x
      value: 0
      objectReference: {fileID: 0}
    - target: {fileID: -4216859302048453862, guid: 8f44dcd6f9fcc8441a8e6b125b8a6866,
        type: 3}
      propertyPath: m_LocalRotation.y
      value: 0.38268343
      objectReference: {fileID: 0}
    - target: {fileID: -4216859302048453862, guid: 8f44dcd6f9fcc8441a8e6b125b8a6866,
        type: 3}
      propertyPath: m_LocalRotation.z
      value: 0
      objectReference: {fileID: 0}
    - target: {fileID: -4216859302048453862, guid: 8f44dcd6f9fcc8441a8e6b125b8a6866,
        type: 3}
      propertyPath: m_LocalRotation.w
      value: 0.92387956
      objectReference: {fileID: 0}
    - target: {fileID: -4216859302048453862, guid: 8f44dcd6f9fcc8441a8e6b125b8a6866,
        type: 3}
      propertyPath: m_RootOrder
      value: 0
      objectReference: {fileID: 0}
    - target: {fileID: -4216859302048453862, guid: 8f44dcd6f9fcc8441a8e6b125b8a6866,
        type: 3}
      propertyPath: m_LocalEulerAnglesHint.x
      value: 0
      objectReference: {fileID: 0}
    - target: {fileID: -4216859302048453862, guid: 8f44dcd6f9fcc8441a8e6b125b8a6866,
        type: 3}
      propertyPath: m_LocalEulerAnglesHint.y
      value: 45
      objectReference: {fileID: 0}
    - target: {fileID: -4216859302048453862, guid: 8f44dcd6f9fcc8441a8e6b125b8a6866,
        type: 3}
      propertyPath: m_LocalEulerAnglesHint.z
      value: 0
      objectReference: {fileID: 0}
    - target: {fileID: -113181020801827196, guid: 8f44dcd6f9fcc8441a8e6b125b8a6866,
        type: 3}
      propertyPath: m_Materials.Array.data[0]
      value: 
      objectReference: {fileID: 2100000, guid: 71571204ce4e7e649802d736c77ee12f, type: 2}
    - target: {fileID: 2502203975881118265, guid: 8f44dcd6f9fcc8441a8e6b125b8a6866,
        type: 3}
      propertyPath: m_Layer
      value: 15
      objectReference: {fileID: 0}
    m_RemovedComponents: []
  m_SourcePrefab: {fileID: 100100000, guid: 8f44dcd6f9fcc8441a8e6b125b8a6866, type: 3}
--- !u!1 &6105033552960479488 stripped
GameObject:
  m_CorrespondingSourceObject: {fileID: -927199367670048503, guid: 8f44dcd6f9fcc8441a8e6b125b8a6866,
    type: 3}
  m_PrefabInstance: {fileID: 2853174115488217097}
  m_PrefabAsset: {fileID: 0}
--- !u!1 &369611826745666096 stripped
GameObject:
  m_CorrespondingSourceObject: {fileID: 2502203975881118265, guid: 8f44dcd6f9fcc8441a8e6b125b8a6866,
    type: 3}
  m_PrefabInstance: {fileID: 2853174115488217097}
  m_PrefabAsset: {fileID: 0}
