%YAML 1.1
%TAG !u! tag:unity3d.com,2011:
--- !u!1001 &8582796947907634746
PrefabInstance:
  m_ObjectHideFlags: 0
  serializedVersion: 2
  m_Modification:
    m_TransformParent: {fileID: 0}
    m_Modifications:
    - target: {fileID: 6875488800520248279, guid: 0722417c53b5d2d43ad5e1fc1e6a5b34,
        type: 3}
      propertyPath: m_Name
      value: Green Cube Teleport
      objectReference: {fileID: 0}
    - target: {fileID: 6875488800520248277, guid: 0722417c53b5d2d43ad5e1fc1e6a5b34,
        type: 3}
      propertyPath: m_LocalPosition.x
      value: 5
      objectReference: {fileID: 0}
    - target: {fileID: 6875488800520248277, guid: 0722417c53b5d2d43ad5e1fc1e6a5b34,
        type: 3}
      propertyPath: m_LocalPosition.y
      value: 0.5
      objectReference: {fileID: 0}
    - target: {fileID: 6875488800520248277, guid: 0722417c53b5d2d43ad5e1fc1e6a5b34,
        type: 3}
      propertyPath: m_LocalPosition.z
      value: 3
      objectReference: {fileID: 0}
    - target: {fileID: 6875488800520248277, guid: 0722417c53b5d2d43ad5e1fc1e6a5b34,
        type: 3}
      propertyPath: m_LocalRotation.x
      value: 0
      objectReference: {fileID: 0}
    - target: {fileID: 6875488800520248277, guid: 0722417c53b5d2d43ad5e1fc1e6a5b34,
        type: 3}
      propertyPath: m_LocalRotation.y
      value: 0
      objectReference: {fileID: 0}
    - target: {fileID: 6875488800520248277, guid: 0722417c53b5d2d43ad5e1fc1e6a5b34,
        type: 3}
      propertyPath: m_LocalRotation.z
      value: 0
      objectReference: {fileID: 0}
    - target: {fileID: 6875488800520248277, guid: 0722417c53b5d2d43ad5e1fc1e6a5b34,
        type: 3}
      propertyPath: m_LocalRotation.w
      value: 1
      objectReference: {fileID: 0}
    - target: {fileID: 6875488800520248277, guid: 0722417c53b5d2d43ad5e1fc1e6a5b34,
        type: 3}
      propertyPath: m_RootOrder
      value: 0
      objectReference: {fileID: 0}
    - target: {fileID: 6875488800520248277, guid: 0722417c53b5d2d43ad5e1fc1e6a5b34,
        type: 3}
      propertyPath: m_LocalEulerAnglesHint.x
      value: 0
      objectReference: {fileID: 0}
    - target: {fileID: 6875488800520248277, guid: 0722417c53b5d2d43ad5e1fc1e6a5b34,
        type: 3}
      propertyPath: m_LocalEulerAnglesHint.y
      value: 0
      objectReference: {fileID: 0}
    - target: {fileID: 6875488800520248277, guid: 0722417c53b5d2d43ad5e1fc1e6a5b34,
        type: 3}
      propertyPath: m_LocalEulerAnglesHint.z
      value: 0
      objectReference: {fileID: 0}
    - target: {fileID: 7551747075700023251, guid: 0722417c53b5d2d43ad5e1fc1e6a5b34,
        type: 3}
      propertyPath: InitialModule.startColor.maxColor.g
      value: 1
      objectReference: {fileID: 0}
    - target: {fileID: 7551747075700023251, guid: 0722417c53b5d2d43ad5e1fc1e6a5b34,
        type: 3}
      propertyPath: InitialModule.startColor.maxColor.b
      value: 0
      objectReference: {fileID: 0}
    m_RemovedComponents: []
  m_SourcePrefab: {fileID: 100100000, guid: 0722417c53b5d2d43ad5e1fc1e6a5b34, type: 3}
